<svg width="98" height="99" viewBox="0 0 98 99" fill="none" xmlns="http://www.w3.org/2000/svg">
<ellipse cx="49.3146" cy="49.451" rx="48.6684" ry="48.6346" fill="white"/>
<rect x="31.6383" y="29.9674" width="45.0218" height="42.8482" fill="black"/>
<path d="M75.336 23.5286H31.2986C27.9833 23.5286 25.2935 26.3046 25.2935 29.7262V75.1759C25.2935 78.5976 27.9833 81.3736 31.2986 81.3736H75.336C78.6513 81.3736 81.3411 78.5976 81.3411 75.1759V29.7262C81.3411 26.3046 78.6513 23.5286 75.336 23.5286ZM69.2183 44.0326C69.2433 44.3941 69.2433 44.7685 69.2433 45.1301C69.2433 56.3246 60.9863 69.2236 45.8985 69.2236C41.2446 69.2236 36.9284 67.8291 33.3003 65.4275C33.9634 65.505 34.6014 65.5308 35.277 65.5308C39.1178 65.5308 42.6457 64.1879 45.4606 61.9155C41.8576 61.838 38.83 59.3976 37.7916 56.0406C39.0552 56.2342 40.1937 56.2343 41.4948 55.8856C37.7416 55.098 34.9267 51.6893 34.9267 47.5704V47.4671C36.0151 48.0998 37.2912 48.4871 38.6298 48.5388C37.5044 47.7662 36.5818 46.7181 35.9444 45.4879C35.307 44.2578 34.9745 42.8839 34.9767 41.4889C34.9767 39.9137 35.3771 38.4676 36.0902 37.2151C40.1311 42.354 46.1988 45.7111 53.0045 46.0726C51.8411 40.3269 56.0071 35.6657 61.0113 35.6657C63.3758 35.6657 65.5027 36.6857 67.0039 38.3384C68.8555 37.9769 70.632 37.2668 72.2083 36.2984C71.5953 38.261 70.3067 39.9137 68.6053 40.9595C70.2567 40.7788 71.858 40.301 73.3343 39.6425C72.2209 41.334 70.8197 42.8318 69.2183 44.0326Z" fill="white"/>
</svg>
